…
### Шаг 2.

#### 1. Определить небезопасные точки доступа (без шифрования – OPN)

``` r
wifi_ap_clean %>% filter(privacy == "OPN")
```

    # A tibble: 42 × 15
       bssid    first_seen          last_seen           channel speed privacy cipher
       <chr>    <dttm>              <dttm>                <dbl> <dbl> <chr>   <chr> 
     1 E8:28:C… 2023-07-28 09:13:03 2023-07-28 11:55:38       6   130 OPN     <NA>  
     2 E8:28:C… 2023-07-28 09:13:06 2023-07-28 11:55:12       6   130 OPN     <NA>  
     3 E8:28:C… 2023-07-28 09:13:06 2023-07-28 11:55:11       6   130 OPN     <NA>  
     4 E8:28:C… 2023-07-28 09:13:06 2023-07-28 11:55:10       6    -1 OPN     <NA>  
     5 00:25:0… 2023-07-28 09:13:06 2023-07-28 11:56:21      44    -1 OPN     <NA>  
     6 E8:28:C… 2023-07-28 09:13:09 2023-07-28 11:56:05      11   130 OPN     <NA>  
     7 E8:28:C… 2023-07-28 09:13:13 2023-07-28 10:27:06       6   130 OPN     <NA>  
     8 E8:28:C… 2023-07-28 09:13:13 2023-07-28 10:39:43       6   130 OPN     <NA>  
     9 E8:28:C… 2023-07-28 09:13:17 2023-07-28 11:52:32       1   130 OPN     <NA>  
    10 E8:28:C… 2023-07-28 09:13:50 2023-07-28 11:43:39      11   130 OPN     <NA>  
    # ℹ 32 more rows
    # ℹ 8 more variables: auth <chr>, power <dbl>, beacons <dbl>, iv_count <dbl>,
    #   lan_ip <chr>, id_length <dbl>, essid <chr>, Key <lgl>
…
result <- sorted_ap %>%
  mutate(duration = paste(
    floor(duration_sec/3600), "h",
    floor((duration_sec %% 3600)/60), "m",
    round(duration_sec %% 60), "s"
  )) %>%
  select(bssid, essid, first_seen, last_seen, duration)

print(result)
```

    # A tibble: 167 × 5
       bssid             essid      first_seen          last_seen           duration
       <chr>             <chr>      <dttm>              <dttm>              <chr>   
     1 00:25:00:FF:94:73 <NA>       2023-07-28 09:13:06 2023-07-28 11:56:21 2 h 43 …
     2 E8:28:C1:DD:04:52 MIREA_HOT… 2023-07-28 09:13:09 2023-07-28 11:56:05 2 h 42 …
     3 E8:28:C1:DC:B2:52 MIREA_HOT… 2023-07-28 09:13:03 2023-07-28 11:55:38 2 h 42 …
     4 08:3A:2F:56:35:FE <NA>       2023-07-28 09:13:27 2023-07-28 11:55:53 2 h 42 …
     5 6E:C7:EC:16:DA:1A Cnet       2023-07-28 09:13:03 2023-07-28 11:55:12 2 h 42 …
     6 E8:28:C1:DC:B2:50 MIREA_GUE… 2023-07-28 09:13:06 2023-07-28 11:55:12 2 h 42 …
     7 E8:28:C1:DC:B2:51 <NA>       2023-07-28 09:13:06 2023-07-28 11:55:11 2 h 42 …
     8 48:5B:39:F9:7A:48 <NA>       2023-07-28 09:13:06 2023-07-28 11:55:11 2 h 42 …
     9 E8:28:C1:DC:FF:F2 <NA>       2023-07-28 09:13:06 2023-07-28 11:55:10 2 h 42 …
    10 8E:55:4A:85:5B:01 Vladimir   2023-07-28 09:13:06 2023-07-28 11:55:09 2 h 42 …
    # ℹ 157 more rows
…
#### 6. Отсортировать точки доступа по частоте отправки запросов (beacons) в единицу времени по их убыванию.

``` r
sorted_rate <- wifi_ap_clean %>%
  mutate(
    duration_sec = as.numeric(difftime(last_seen, first_seen, units = "secs")),
    beacon_rate = ifelse(duration_sec > 0, beacons / duration_sec, 0)
  ) %>%
  arrange(desc(beacon_rate)) %>%
  select(bssid, essid, beacons, duration_sec, beacon_rate, first_seen, last_seen)

print(sorted_rate)
```

    # A tibble: 167 × 7
       bssid             essid  beacons duration_sec beacon_rate first_seen         
       <chr>             <chr>    <dbl>        <dbl>       <dbl> <dttm>             
     1 F2:30:AB:E9:03:ED "iPho…       6            7       0.857 2023-07-28 10:27:02
     2 B2:CF:C0:00:4A:60 "Миха…       4            5       0.8   2023-07-28 10:40:54
     3 3A:DA:00:F9:0C:02 "iPho…       5            9       0.556 2023-07-28 10:27:01
     4 02:BC:15:7E:D5:DC "MT_F…       1            2       0.5   2023-07-28 09:24:46
     5 00:3E:1A:5D:14:45 "MT_F…       1            2       0.5   2023-07-28 10:34:03
     6 76:C5:A0:70:08:96  <NA>        1            2       0.5   2023-07-28 11:16:36
     7 D2:25:91:F6:6C:D8 "Саня"       5           13       0.385 2023-07-28 09:45:29
     8 BE:F1:71:D6:10:D7 "C322…    1647         9461       0.174 2023-07-28 09:13:03
     9 00:03:7A:1A:03:56 "MT_F…       1            6       0.167 2023-07-28 10:29:13
    10 38:1A:52:0D:84:D7 "EBFC…     704         4319       0.163 2023-07-28 09:13:03
    # ℹ 157 more rows
    # ℹ 1 more variable: last_seen <dttm>
…
  if (bitwAnd(b1, 0x01) != 0) return(NA)
  
  laa <- bitwAnd(b1, 0x02) != 0
  return(laa)
}

clients_nr <- wifi_clients_clean %>%
  mutate(is_randomized = vapply(station_mac, is_laa, logical(1))) %>%
  filter(is_randomized == FALSE) %>%
  select(station_mac, bssid, first_seen, last_seen, power, packets)

clients_nr
```

    # A tibble: 217 × 6
       station_mac       bssid first_seen          last_seen           power packets
       <chr>             <chr> <dttm>              <dttm>              <dbl>   <dbl>
     1 5C:3A:45:9E:1A:7B BE:F… 2023-07-28 09:13:03 2023-07-28 11:51:54   -39     432
     2 C0:E4:34:D8:E7:E5 BE:F… 2023-07-28 09:13:03 2023-07-28 11:53:16   -61     958
     3 10:51:07:CB:33:E7 <NA>  2023-07-28 09:13:05 2023-07-28 11:56:06   -43     344
     4 68:54:5A:40:35:9E 1E:9… 2023-07-28 09:13:06 2023-07-28 11:50:50   -31     163
     5 74:4C:A1:70:CE:F7 E8:2… 2023-07-28 09:13:06 2023-07-28 09:20:01   -71       3
     6 BC:F1:71:D4:DB:04 <NA>  2023-07-28 09:13:07 2023-07-28 10:57:52   -45     265
     7 4C:44:5B:14:76:E3 E8:2… 2023-07-28 09:13:09 2023-07-28 09:47:44    -1      71
     8 A0:E7:0B:AE:D5:44 0A:C… 2023-07-28 09:13:09 2023-07-28 11:34:42   -37     125
     9 00:95:69:E7:7F:35 <NA>  2023-07-28 09:13:11 2023-07-28 11:56:07   -69    2245
    10 00:95:69:E7:7C:ED <NA>  2023-07-28 09:13:11 2023-07-28 11:56:13   -55    4096
    # ℹ 207 more rows
…
device_essid_presence
```

    # A tibble: 186 × 6
       station_mac   essid_norm first_seen          last_seen           duration_sec
       <chr>         <chr>      <dttm>              <dttm>                     <dbl>
     1 8C:55:4A:DE:… Galaxy A3… 2023-07-28 09:13:17 2023-07-28 11:56:16         9779
     2 70:66:55:D0:… <NA>       2023-07-28 09:14:09 2023-07-28 11:56:21         9732
     3 CA:54:C4:8B:… GIVC       2023-07-28 09:13:06 2023-07-28 11:55:04         9718
     4 9E:A3:A9:D6:… <NA>       2023-07-28 09:14:37 2023-07-28 11:55:53         9676
     5 F6:4D:98:98:… GIVC       2023-07-28 09:14:37 2023-07-28 11:55:29         9652
     6 C0:E4:34:D8:… C322U13 3… 2023-07-28 09:13:03 2023-07-28 11:53:16         9613
     7 5C:3A:45:9E:… C322U21 0… 2023-07-28 09:13:03 2023-07-28 11:51:54         9531
     8 9C:A3:A9:D6:… <NA>       2023-07-28 09:13:45 2023-07-28 11:52:30         9525
     9 28:7F:CF:23:… KC         2023-07-28 09:13:14 2023-07-28 11:51:50         9516
    10 34:E1:2D:3C:… Cnet       2023-07-28 09:13:29 2023-07-28 11:51:50         9501
    # ℹ 176 more rows
    # ℹ 1 more variable: n_records <int>
…
most_stable <- slice_head(stability, n = 1)

stability
```

    # A tibble: 99 × 5
       station_mac       essid_norm    n_obs  span_m sd_rssi
       <chr>             <chr>         <int>   <dbl>   <dbl>
     1 00:E9:3A:67:93:E9 POCO C40          1  99.9        NA
     2 00:F4:8D:F7:C5:19 Redmi 12          1  58.4        NA
     3 02:69:A5:29:F1:3E Galaxy A71        1  32.3        NA
     4 02:B3:4E:24:2A:00 Димасик           1   0          NA
     5 04:8C:9A:0B:40:EA MIREA_HOTSPOT     1  88.1        NA
     6 06:15:2E:12:C8:A6 MIREA_HOTSPOT     1   2.9        NA
     7 06:7A:BA:E6:9F:FA Vladimir          1  18.1        NA
     8 06:F2:A9:C1:8D:09 MIREA_HOTSPOT     1 139.         NA
     9 0A:AB:49:39:BB:29 MIREA_HOTSPOT     1  67.1        NA
    10 0A:C2:C3:08:9E:F8 MIREA_HOTSPOT     1   0.133      NA
    # ℹ 89 more rows
…
